{
  "body": {
    "data": {
      "list": [
        {
          "equivalentAmount": 0.24375381,
          "id": 186,
          "point": 5,
          "status": "pending",
          "transactions": [
            {
              "amount": 0.24375381,
              "date": "2020-03-30T06:23:19Z",
              "from": "0x",
              "id": 1960,
              "remarks": "",
              "source": "conversions",
              "status": "pending",
              "to": "0xa934507f2f6c0baaa13c149771e01082ee6265ad",
              "type": "token"
            },
            {
              "amount": 5,
              "date": "2020-03-30T06:23:19Z",
              "from": "0xa934507f2f6c0baaa13c149771e01082ee6265ad",
              "id": 1961,
              "remarks": "",
              "source": "conversions",
              "status": "pending",
              "to": "",
              "type": "point"
            }
          ],
          "type": "token"
        },
        {
          "equivalentAmount": 0.05194805,
          "id": 164,
          "point": 1,
          "status": "pending",
          "transactions": [
            {
              "amount": 0.05194805,
              "date": "2019-12-20T04:55:59Z",
              "from": "0x",
              "id": 1517,
              "remarks": "",
              "source": "conversions",
              "status": "pending",
              "to": "0xa934507f2f6c0baaa13c149771e01082ee6265ad",
              "type": "token"
            },
            {
              "amount": 1,
              "date": "2019-12-20T04:55:59Z",
              "from": "0xa934507f2f6c0baaa13c149771e01082ee6265ad",
              "id": 1518,
              "remarks": "",
              "source": "conversions",
              "status": "pending",
              "to": "",
              "type": "point"
            }
          ],
          "type": "token"
        },
        {
          "equivalentAmount": 0.05194805,
          "id": 163,
          "point": 1,
          "status": "success",
          "transactions": [
            {
              "amount": 0.05194805,
              "date": "2019-12-20T04:27:09Z",
              "from": "0xc6d29ddbb244be41cfb53ac725963b54a283c006",
              "hash": "0x5ee66c54f8f2515cc6f2aefdfc268aeecb8aa314b4e2987887660cbead9c8839",
              "id": 1515,
              "remarks": "",
              "source": "conversions",
              "status": "success",
              "to": "0xa934507f2f6c0baaa13c149771e01082ee6265ad",
              "type": "token"
            },
            {
              "amount": 1,
              "date": "2019-12-20T04:27:09Z",
              "from": "0xa934507f2f6c0baaa13c149771e01082ee6265ad",
              "id": 1516,
              "remarks": "",
              "source": "conversions",
              "status": "success",
              "to": "",
              "type": "point"
            }
          ],
          "type": "token"
        },
        {
          "equivalentAmount": 0.05851756,
          "id": 136,
          "point": 1,
          "status": "success",
          "transactions": [
            {
              "amount": 0.05851756,
              "date": "2019-12-18T08:01:38Z",
              "from": "0xc6d29ddbb244be41cfb53ac725963b54a283c006",
              "hash": "0x9b176972f1fd89cae51d099a1e0d4390bfb60e81e664fcd6caafa4afff9f0b88",
              "id": 1446,
              "remarks": "",
              "source": "conversions",
              "status": "success",
              "to": "0xa934507f2f6c0baaa13c149771e01082ee6265ad",
              "type": "token"
            },
            {
              "amount": 1,
              "date": "2019-12-18T08:01:38Z",
              "from": "0xa934507f2f6c0baaa13c149771e01082ee6265ad",
              "id": 1447,
              "remarks": "",
              "source": "conversions",
              "status": "success",
              "to": "",
              "type": "point"
            }
          ],
          "type": "token"
        },
        {
          "equivalentAmount": 0.526658,
          "id": 135,
          "point": 9,
          "status": "success",
          "transactions": [
            {
              "amount": 0.526658,
              "date": "2019-12-18T07:58:28Z",
              "from": "0xc6d29ddbb244be41cfb53ac725963b54a283c006",
              "hash": "0x2ae2e5827aa49b5f18540981e8e1d06a027e0d7a64de2d76e3faf5cad3736401",
              "id": 1444,
              "remarks": "",
              "source": "conversions",
              "status": "success",
              "to": "0xa934507f2f6c0baaa13c149771e01082ee6265ad",
              "type": "token"
            },
            {
              "amount": 9,
              "date": "2019-12-18T07:58:28Z",
              "from": "0xa934507f2f6c0baaa13c149771e01082ee6265ad",
              "id": 1445,
              "remarks": "",
              "source": "conversions",
              "status": "success",
              "to": "",
              "type": "point"
            }
          ],
          "type": "token"
        },
        {
          "equivalentAmount": 13.01236174,
          "id": 131,
          "point": 200,
          "status": "success",
          "transactions": [
            {
              "amount": 13.01236174,
              "date": "2019-12-17T05:39:03Z",
              "from": "0xc6d29ddbb244be41cfb53ac725963b54a283c006",
              "hash": "0x508cc53a0b92aaefe6ce09e3f15f05734bde02b3251b94c1de6a37e5450eb8dc",
              "id": 1435,
              "remarks": "",
              "source": "conversions",
              "status": "success",
              "to": "0xa934507f2f6c0baaa13c149771e01082ee6265ad",
              "type": "token"
            },
            {
              "amount": 0.001516875,
              "date": "2019-12-17T05:39:03Z",
              "from": "0xa934507f2f6c0baaa13c149771e01082ee6265ad",
              "hash": "0x7cbb643ddb42e9a0cd83e257b790443a7af47f5b499cab7e418ce1a2d503fc3c",
              "id": 1436,
              "remarks": "",
              "source": "conversions",
              "status": "success",
              "to": "0x6eD8aB4269faCB4C026420635dD570FB728D67a8",
              "type": "commission"
            },
            {
              "amount": 200,
              "date": "2019-12-17T05:39:03Z",
              "from": "0xa934507f2f6c0baaa13c149771e01082ee6265ad",
              "id": 1437,
              "remarks": "",
              "source": "conversions",
              "status": "success",
              "to": "",
              "type": "point"
            }
          ],
          "type": "token"
        },
        {
          "equivalentAmount": 3.25309044,
          "id": 130,
          "point": 50,
          "status": "success",
          "transactions": [
            {
              "amount": 3.25309044,
              "date": "2019-12-17T05:38:07Z",
              "from": "0xc6d29ddbb244be41cfb53ac725963b54a283c006",
              "hash": "0xe1bd18d7c4bee1f645300eb3c4249c3c1f73793f0c7beda888d17e105d854bbc",
              "id": 1432,
              "remarks": "",
              "source": "conversions",
              "status": "success",
              "to": "0xa934507f2f6c0baaa13c149771e01082ee6265ad",
              "type": "token"
            },
            {
              "amount": 0.000379219,
              "date": "2019-12-17T05:38:07Z",
              "from": "0xa934507f2f6c0baaa13c149771e01082ee6265ad",
              "hash": "0xf6f2fc5ee1eca6f9c6ed41e8f518b55c18c11e90d5b188a338b7e42ff5afa516",
              "id": 1433,
              "remarks": "",
              "source": "conversions",
              "status": "success",
              "to": "0x6eD8aB4269faCB4C026420635dD570FB728D67a8",
              "type": "commission"
            },
            {
              "amount": 50,
              "date": "2019-12-17T05:38:07Z",
              "from": "0xa934507f2f6c0baaa13c149771e01082ee6265ad",
              "id": 1434,
              "remarks": "",
              "source": "conversions",
              "status": "success",
              "to": "",
              "type": "point"
            }
          ],
          "type": "token"
        },
        {
          "equivalentAmount": 3.25309044,
          "id": 129,
          "point": 50,
          "status": "success",
          "transactions": [
            {
              "amount": 3.25309044,
              "date": "2019-12-17T05:36:06Z",
              "from": "0xc6d29ddbb244be41cfb53ac725963b54a283c006",
              "hash": "0x3b5d1c3c3f2d1d49bf3eeac2e51743813ec827cb2d365fa3f66d1954173c956d",
              "id": 1429,
              "remarks": "",
              "source": "conversions",
              "status": "success",
              "to": "0xa934507f2f6c0baaa13c149771e01082ee6265ad",
              "type": "token"
            },
            {
              "amount": 0.000379219,
              "date": "2019-12-17T05:36:06Z",
              "from": "0xa934507f2f6c0baaa13c149771e01082ee6265ad",
              "hash": "0x0ac297ae5117c6cb40a18ec5732c08044bf16cd9e4ba53cb7516ab7bfe567182",
              "id": 1430,
              "remarks": "",
              "source": "conversions",
              "status": "success",
              "to": "0x6eD8aB4269faCB4C026420635dD570FB728D67a8",
              "type": "commission"
            },
            {
              "amount": 50,
              "date": "2019-12-17T05:36:06Z",
              "from": "0xa934507f2f6c0baaa13c149771e01082ee6265ad",
              "id": 1431,
              "remarks": "",
              "source": "conversions",
              "status": "success",
              "to": "",
              "type": "point"
            }
          ],
          "type": "token"
        },
        {
          "equivalentAmount": 3.2615786,
          "id": 126,
          "point": 50,
          "status": "pending",
          "transactions": [
            {
              "amount": 3.2615786,
              "date": "2019-12-13T05:45:44Z",
              "from": "0x",
              "id": 1413,
              "remarks": "",
              "source": "conversions",
              "status": "pending",
              "to": "0xa934507f2f6c0baaa13c149771e01082ee6265ad",
              "type": "token"
            },
            {
              "amount": 0.000346021,
              "date": "2019-12-13T05:45:44Z",
              "from": "0xa934507f2f6c0baaa13c149771e01082ee6265ad",
              "hash": "0x3e0f5d31c65113adda2cf92ae0c726f49ce286840ae0e8b8c10878d33ae2e180",
              "id": 1414,
              "remarks": "",
              "source": "conversions",
              "status": "success",
              "to": "0x6eD8aB4269faCB4C026420635dD570FB728D67a8",
              "type": "commission"
            },
            {
              "amount": 50,
              "date": "2019-12-13T05:45:44Z",
              "from": "0xa934507f2f6c0baaa13c149771e01082ee6265ad",
              "id": 1415,
              "remarks": "",
              "source": "conversions",
              "status": "pending",
              "to": "",
              "type": "point"
            }
          ],
          "type": "token"
        },
        {
          "equivalentAmount": 3.2615786,
          "id": 125,
          "point": 50,
          "status": "pending",
          "transactions": [
            {
              "amount": 3.2615786,
              "date": "2019-12-13T05:45:12Z",
              "from": "0x",
              "id": 1410,
              "remarks": "",
              "source": "conversions",
              "status": "pending",
              "to": "0xa934507f2f6c0baaa13c149771e01082ee6265ad",
              "type": "token"
            },
            {
              "amount": 0.000346021,
              "date": "2019-12-13T05:45:12Z",
              "from": "0xa934507f2f6c0baaa13c149771e01082ee6265ad",
              "hash": "0x84025e02ac289771e2db2932e983011a86aa635b4b0401426c34e8efc511bbca",
              "id": 1411,
              "remarks": "",
              "source": "conversions",
              "status": "success",
              "to": "0x6eD8aB4269faCB4C026420635dD570FB728D67a8",
              "type": "commission"
            },
            {
              "amount": 50,
              "date": "2019-12-13T05:45:12Z",
              "from": "0xa934507f2f6c0baaa13c149771e01082ee6265ad",
              "id": 1412,
              "remarks": "",
              "source": "conversions",
              "status": "pending",
              "to": "",
              "type": "point"
            }
          ],
          "type": "token"
        }
      ],
      "pagination": {
        "next": 2,
        "page": 1,
        "perPage": 10,
        "prev": 1,
        "totalPages": 2,
        "totalRecords": 19
      }
    },
    "error": false,
    "status": "success"
  },
  "headers": {
    "server": "nginx/1.14.0 (Ubuntu)",
    "date": "Mon, 30 Mar 2020 06:23:21 GMT",
    "content-type": "application/json; charset=utf-8",
    "transfer-encoding": "chunked",
    "connection": "keep-alive",
    "access-control-allow-credentials": "true",
    "access-control-allow-headers": "Content-Type, Content-Length, Accept-Encoding, X-CSRF-Token, Authorization, otp, accept, origin, Cache-Control, X-Requested-With",
    "access-control-allow-methods": "POST, OPTIONS, GET, PUT, DELETE, PATCH",
    "access-control-allow-origin": "*",
    "allow": "HEAD,GET,POST,PUT,PATCH,DELETE,OPTIONS"
  },
  "status": 200,
  "statusText": "OK",
  "isOkStatusCode": true,
  "requestHeaders": {
    "Connection": "keep-alive",
    "Authorization": "Bearer eyJhbGciOiJIUzI1NiIsInR5cCI6IkpXVCJ9.eyJVc2VySWQiOjEzNywiSWQiOjc2NjUsIkNsaWVudElkIjoxLCJBZG1pbklkIjoiIiwiZXhwIjoxNTg1NTU2NTkwfQ.WQVJ3jWyRSIiWScgCdYYbeu1xo9k5pn8ApoQQsfGKmo",
    "user-agent": "Mozilla/5.0 (Windows NT 10.0; Win64; x64) AppleWebKit/537.36 (KHTML, like Gecko) Chrome/80.0.3987.149 Safari/537.36",
    "accept": "*/*",
    "accept-encoding": "gzip, deflate"
  },
  "duration": 178,
  "allRequestResponses": [
    {
      "Request Body": null,
      "Request Headers": {
        "Connection": "keep-alive",
        "Authorization": "Bearer eyJhbGciOiJIUzI1NiIsInR5cCI6IkpXVCJ9.eyJVc2VySWQiOjEzNywiSWQiOjc2NjUsIkNsaWVudElkIjoxLCJBZG1pbklkIjoiIiwiZXhwIjoxNTg1NTU2NTkwfQ.WQVJ3jWyRSIiWScgCdYYbeu1xo9k5pn8ApoQQsfGKmo",
        "user-agent": "Mozilla/5.0 (Windows NT 10.0; Win64; x64) AppleWebKit/537.36 (KHTML, like Gecko) Chrome/80.0.3987.149 Safari/537.36",
        "accept": "*/*",
        "accept-encoding": "gzip, deflate"
      },
      "Request URL": "https://dev-api.jqt01.com/api/v1/point/history?type=from_ticket&page=",
      "Response Body": "{\"data\":{\"list\":[{\"equivalentAmount\":0.24375381,\"id\":186,\"point\":5,\"status\":\"pending\",\"transactions\":[{\"amount\":0.24375381,\"date\":\"2020-03-30T06:23:19Z\",\"from\":\"0x\",\"id\":1960,\"remarks\":\"\",\"source\":\"conversions\",\"status\":\"pending\",\"to\":\"0xa934507f2f6c0baaa13c149771e01082ee6265ad\",\"type\":\"token\"},{\"amount\":5,\"date\":\"2020-03-30T06:23:19Z\",\"from\":\"0xa934507f2f6c0baaa13c149771e01082ee6265ad\",\"id\":1961,\"remarks\":\"\",\"source\":\"conversions\",\"status\":\"pending\",\"to\":\"\",\"type\":\"point\"}],\"type\":\"token\"},{\"equivalentAmount\":0.05194805,\"id\":164,\"point\":1,\"status\":\"pending\",\"transactions\":[{\"amount\":0.05194805,\"date\":\"2019-12-20T04:55:59Z\",\"from\":\"0x\",\"id\":1517,\"remarks\":\"\",\"source\":\"conversions\",\"status\":\"pending\",\"to\":\"0xa934507f2f6c0baaa13c149771e01082ee6265ad\",\"type\":\"token\"},{\"amount\":1,\"date\":\"2019-12-20T04:55:59Z\",\"from\":\"0xa934507f2f6c0baaa13c149771e01082ee6265ad\",\"id\":1518,\"remarks\":\"\",\"source\":\"conversions\",\"status\":\"pending\",\"to\":\"\",\"type\":\"point\"}],\"type\":\"token\"},{\"equivalentAmount\":0.05194805,\"id\":163,\"point\":1,\"status\":\"success\",\"transactions\":[{\"amount\":0.05194805,\"date\":\"2019-12-20T04:27:09Z\",\"from\":\"0xc6d29ddbb244be41cfb53ac725963b54a283c006\",\"hash\":\"0x5ee66c54f8f2515cc6f2aefdfc268aeecb8aa314b4e2987887660cbead9c8839\",\"id\":1515,\"remarks\":\"\",\"source\":\"conversions\",\"status\":\"success\",\"to\":\"0xa934507f2f6c0baaa13c149771e01082ee6265ad\",\"type\":\"token\"},{\"amount\":1,\"date\":\"2019-12-20T04:27:09Z\",\"from\":\"0xa934507f2f6c0baaa13c149771e01082ee6265ad\",\"id\":1516,\"remarks\":\"\",\"source\":\"conversions\",\"status\":\"success\",\"to\":\"\",\"type\":\"point\"}],\"type\":\"token\"},{\"equivalentAmount\":0.05851756,\"id\":136,\"point\":1,\"status\":\"success\",\"transactions\":[{\"amount\":0.05851756,\"date\":\"2019-12-18T08:01:38Z\",\"from\":\"0xc6d29ddbb244be41cfb53ac725963b54a283c006\",\"hash\":\"0x9b176972f1fd89cae51d099a1e0d4390bfb60e81e664fcd6caafa4afff9f0b88\",\"id\":1446,\"remarks\":\"\",\"source\":\"conversions\",\"status\":\"success\",\"to\":\"0xa934507f2f6c0baaa13c149771e01082ee6265ad\",\"type\":\"token\"},{\"amount\":1,\"date\":\"2019-12-18T08:01:38Z\",\"from\":\"0xa934507f2f6c0baaa13c149771e01082ee6265ad\",\"id\":1447,\"remarks\":\"\",\"source\":\"conversions\",\"status\":\"success\",\"to\":\"\",\"type\":\"point\"}],\"type\":\"token\"},{\"equivalentAmount\":0.526658,\"id\":135,\"point\":9,\"status\":\"success\",\"transactions\":[{\"amount\":0.526658,\"date\":\"2019-12-18T07:58:28Z\",\"from\":\"0xc6d29ddbb244be41cfb53ac725963b54a283c006\",\"hash\":\"0x2ae2e5827aa49b5f18540981e8e1d06a027e0d7a64de2d76e3faf5cad3736401\",\"id\":1444,\"remarks\":\"\",\"source\":\"conversions\",\"status\":\"success\",\"to\":\"0xa934507f2f6c0baaa13c149771e01082ee6265ad\",\"type\":\"token\"},{\"amount\":9,\"date\":\"2019-12-18T07:58:28Z\",\"from\":\"0xa934507f2f6c0baaa13c149771e01082ee6265ad\",\"id\":1445,\"remarks\":\"\",\"source\":\"conversions\",\"status\":\"success\",\"to\":\"\",\"type\":\"point\"}],\"type\":\"token\"},{\"equivalentAmount\":13.01236174,\"id\":131,\"point\":200,\"status\":\"success\",\"transactions\":[{\"amount\":13.01236174,\"date\":\"2019-12-17T05:39:03Z\",\"from\":\"0xc6d29ddbb244be41cfb53ac725963b54a283c006\",\"hash\":\"0x508cc53a0b92aaefe6ce09e3f15f05734bde02b3251b94c1de6a37e5450eb8dc\",\"id\":1435,\"remarks\":\"\",\"source\":\"conversions\",\"status\":\"success\",\"to\":\"0xa934507f2f6c0baaa13c149771e01082ee6265ad\",\"type\":\"token\"},{\"amount\":0.001516875,\"date\":\"2019-12-17T05:39:03Z\",\"from\":\"0xa934507f2f6c0baaa13c149771e01082ee6265ad\",\"hash\":\"0x7cbb643ddb42e9a0cd83e257b790443a7af47f5b499cab7e418ce1a2d503fc3c\",\"id\":1436,\"remarks\":\"\",\"source\":\"conversions\",\"status\":\"success\",\"to\":\"0x6eD8aB4269faCB4C026420635dD570FB728D67a8\",\"type\":\"commission\"},{\"amount\":200,\"date\":\"2019-12-17T05:39:03Z\",\"from\":\"0xa934507f2f6c0baaa13c149771e01082ee6265ad\",\"id\":1437,\"remarks\":\"\",\"source\":\"conversions\",\"status\":\"success\",\"to\":\"\",\"type\":\"point\"}],\"type\":\"token\"},{\"equivalentAmount\":3.25309044,\"id\":130,\"point\":50,\"status\":\"success\",\"transactions\":[{\"amount\":3.25309044,\"date\":\"2019-12-17T05:38:07Z\",\"from\":\"0xc6d29ddbb244be41cfb53ac725963b54a283c006\",\"hash\":\"0xe1bd18d7c4bee1f645300eb3c4249c3c1f73793f0c7beda888d17e105d854bbc\",\"id\":1432,\"remarks\":\"\",\"source\":\"conversions\",\"status\":\"success\",\"to\":\"0xa934507f2f6c0baaa13c149771e01082ee6265ad\",\"type\":\"token\"},{\"amount\":0.000379219,\"date\":\"2019-12-17T05:38:07Z\",\"from\":\"0xa934507f2f6c0baaa13c149771e01082ee6265ad\",\"hash\":\"0xf6f2fc5ee1eca6f9c6ed41e8f518b55c18c11e90d5b188a338b7e42ff5afa516\",\"id\":1433,\"remarks\":\"\",\"source\":\"conversions\",\"status\":\"success\",\"to\":\"0x6eD8aB4269faCB4C026420635dD570FB728D67a8\",\"type\":\"commission\"},{\"amount\":50,\"date\":\"2019-12-17T05:38:07Z\",\"from\":\"0xa934507f2f6c0baaa13c149771e01082ee6265ad\",\"id\":1434,\"remarks\":\"\",\"source\":\"conversions\",\"status\":\"success\",\"to\":\"\",\"type\":\"point\"}],\"type\":\"token\"},{\"equivalentAmount\":3.25309044,\"id\":129,\"point\":50,\"status\":\"success\",\"transactions\":[{\"amount\":3.25309044,\"date\":\"2019-12-17T05:36:06Z\",\"from\":\"0xc6d29ddbb244be41cfb53ac725963b54a283c006\",\"hash\":\"0x3b5d1c3c3f2d1d49bf3eeac2e51743813ec827cb2d365fa3f66d1954173c956d\",\"id\":1429,\"remarks\":\"\",\"source\":\"conversions\",\"status\":\"success\",\"to\":\"0xa934507f2f6c0baaa13c149771e01082ee6265ad\",\"type\":\"token\"},{\"amount\":0.000379219,\"date\":\"2019-12-17T05:36:06Z\",\"from\":\"0xa934507f2f6c0baaa13c149771e01082ee6265ad\",\"hash\":\"0x0ac297ae5117c6cb40a18ec5732c08044bf16cd9e4ba53cb7516ab7bfe567182\",\"id\":1430,\"remarks\":\"\",\"source\":\"conversions\",\"status\":\"success\",\"to\":\"0x6eD8aB4269faCB4C026420635dD570FB728D67a8\",\"type\":\"commission\"},{\"amount\":50,\"date\":\"2019-12-17T05:36:06Z\",\"from\":\"0xa934507f2f6c0baaa13c149771e01082ee6265ad\",\"id\":1431,\"remarks\":\"\",\"source\":\"conversions\",\"status\":\"success\",\"to\":\"\",\"type\":\"point\"}],\"type\":\"token\"},{\"equivalentAmount\":3.2615786,\"id\":126,\"point\":50,\"status\":\"pending\",\"transactions\":[{\"amount\":3.2615786,\"date\":\"2019-12-13T05:45:44Z\",\"from\":\"0x\",\"id\":1413,\"remarks\":\"\",\"source\":\"conversions\",\"status\":\"pending\",\"to\":\"0xa934507f2f6c0baaa13c149771e01082ee6265ad\",\"type\":\"token\"},{\"amount\":0.000346021,\"date\":\"2019-12-13T05:45:44Z\",\"from\":\"0xa934507f2f6c0baaa13c149771e01082ee6265ad\",\"hash\":\"0x3e0f5d31c65113adda2cf92ae0c726f49ce286840ae0e8b8c10878d33ae2e180\",\"id\":1414,\"remarks\":\"\",\"source\":\"conversions\",\"status\":\"success\",\"to\":\"0x6eD8aB4269faCB4C026420635dD570FB728D67a8\",\"type\":\"commission\"},{\"amount\":50,\"date\":\"2019-12-13T05:45:44Z\",\"from\":\"0xa934507f2f6c0baaa13c149771e01082ee6265ad\",\"id\":1415,\"remarks\":\"\",\"source\":\"conversions\",\"status\":\"pending\",\"to\":\"\",\"type\":\"point\"}],\"type\":\"token\"},{\"equivalentAmount\":3.2615786,\"id\":125,\"point\":50,\"status\":\"pending\",\"transactions\":[{\"amount\":3.2615786,\"date\":\"2019-12-13T05:45:12Z\",\"from\":\"0x\",\"id\":1410,\"remarks\":\"\",\"source\":\"conversions\",\"status\":\"pending\",\"to\":\"0xa934507f2f6c0baaa13c149771e01082ee6265ad\",\"type\":\"token\"},{\"amount\":0.000346021,\"date\":\"2019-12-13T05:45:12Z\",\"from\":\"0xa934507f2f6c0baaa13c149771e01082ee6265ad\",\"hash\":\"0x84025e02ac289771e2db2932e983011a86aa635b4b0401426c34e8efc511bbca\",\"id\":1411,\"remarks\":\"\",\"source\":\"conversions\",\"status\":\"success\",\"to\":\"0x6eD8aB4269faCB4C026420635dD570FB728D67a8\",\"type\":\"commission\"},{\"amount\":50,\"date\":\"2019-12-13T05:45:12Z\",\"from\":\"0xa934507f2f6c0baaa13c149771e01082ee6265ad\",\"id\":1412,\"remarks\":\"\",\"source\":\"conversions\",\"status\":\"pending\",\"to\":\"\",\"type\":\"point\"}],\"type\":\"token\"}],\"pagination\":{\"next\":2,\"page\":1,\"perPage\":10,\"prev\":1,\"totalPages\":2,\"totalRecords\":19}},\"error\":false,\"status\":\"success\"}",
      "Response Headers": {
        "server": "nginx/1.14.0 (Ubuntu)",
        "date": "Mon, 30 Mar 2020 06:23:21 GMT",
        "content-type": "application/json; charset=utf-8",
        "transfer-encoding": "chunked",
        "connection": "keep-alive",
        "access-control-allow-credentials": "true",
        "access-control-allow-headers": "Content-Type, Content-Length, Accept-Encoding, X-CSRF-Token, Authorization, otp, accept, origin, Cache-Control, X-Requested-With",
        "access-control-allow-methods": "POST, OPTIONS, GET, PUT, DELETE, PATCH",
        "access-control-allow-origin": "*",
        "allow": "HEAD,GET,POST,PUT,PATCH,DELETE,OPTIONS"
      },
      "Response Status": 200
    }
  ]
}